대한민국 제21대 국회의원 선거
…
## 결합
seoul_latest_df <- left_join(seoul_poll_df, seoul_precinct_df) %>% 
  mutate(선거구명 = zoo::na.locf(선거구명)) %>% 
  group_by(선거구명) %>% 
  filter(날짜 == max(날짜)) %>% 
  ungroup()

seoul_latest_df

# A tibble: 48 x 6
   날짜       정당   후보자명 지지율 조사업체     선거구명  
   <date>     <chr>  <chr>     <dbl> <chr>        <chr>     
 1 2020-03-31 민주   이낙연     51   피플네트웍스 종로구    
 2 2020-03-31 통합   황교안     39   피플네트웍스 종로구    
 3 2020-03-31 공화   한민호      1.6 피플네트웍스 종로구    
 4 2020-03-31 민중   오인환      0.7 피플네트웍스 종로구    
 5 2020-03-31 무당층 무당층      5.4 피플네트웍스 종로구    
 6 2020-03-28 민주   고민정     47.1 리얼미터     광진구을  
 7 2020-03-28 통합   오세훈     43.3 리얼미터     광진구을  
 8 2020-03-28 무당층 무당층      8.1 리얼미터     광진구을  
 9 2020-03-29 민주   장경태     35.7 한국리서치   동대문구을
10 2020-03-29 통합   이혜훈     32.2 한국리서치   동대문구을
# … with 38 more rows
…
